{
  "success": true,
  "message": "Attendance history retrieved successfully for you and 2 child(ren)",
  "pagination": {
    "currentPage": 1,
    "totalPages": 2,
    "totalRecords": 42,
    "recordsPerPage": 30,
    "hasNextPage": true,
    "hasPrevPage": false
  },
  "data": [
    {
      "date": "2026-03-16",
      "status": "PRESENT",
      "statusLabel": "Present",
      "studentId": "student_3_id",
      "studentName": "A. Weerasekara",
      "studentImageUrl": "https://storage.googleapis.com/bucket/images/student3_profile.jpg",
      "instituteId": "109",
      "instituteName": "Colombo International School",
      "instituteLogoUrl": "https://storage.googleapis.com/bucket/logos/colombo_intl_logo.png",
      "classId": "class_8a",
      "className": "8A",
      "subjectId": null,
      "subjectName": null,
      "markingMethod": "WEB",
      "remarks": null,
      "userType": "STUDENT",
      "location": "Colombo International School, 8A",
      "address": {
        "latitude": 6.9217,
        "longitude": 80.7681
      },
      "latitude": 6.9217,
      "longitude": 80.7681,
      "timestamp": 1742215200000,
      "markedAt": "2026-03-16T08:00:00Z"
    },
    {
      "date": "2026-03-16",
      "status": "PRESENT",
      "statusLabel": "Present",
      "studentId": "parent_user_id",
      "studentName": "A.M.S. Fernando",
      "studentImageUrl": "https://storage.googleapis.com/bucket/images/parent_profile.jpg",
      "instituteId": "109",
      "instituteName": "Colombo International School",
      "instituteLogoUrl": "https://storage.googleapis.com/bucket/logos/colombo_intl_logo.png",
      "classId": null,
      "className": null,
      "subjectId": null,
      "subjectName": null,
      "markingMethod": "MOBILE",
      "remarks": "Self - Parent attendance",
      "userType": "PARENT",
      "location": "Colombo International School",
      "address": {
        "latitude": 6.9217,
        "longitude": 80.7681
      },
      "latitude": 6.9217,
      "longitude": 80.7681,
      "timestamp": 1742215200000,
      "markedAt": "2026-03-16T08:00:00Z"
    },
    {
      "date": "2026-03-15",
      "status": "LATE",
      "statusLabel": "Late",
      "studentId": "student_4_id",
      "studentName": "K.D. Perera",
      "studentImageUrl": "https://storage.googleapis.com/bucket/images/student4_profile.jpg",
      "instituteId": "109",
      "instituteName": "Colombo International School",
      "instituteLogoUrl": "https://storage.googleapis.com/bucket/logos/colombo_intl_logo.png",
      "classId": "class_7b",
      "className": "7B",
      "subjectId": "subject_math",
      "subjectName": "Mathematics",
      "markingMethod": "WEB",
      "remarks": null,
      "userType": "STUDENT",
      "location": "Colombo International School, 7B",
      "address": {
        "latitude": 6.9217,
        "longitude": 80.7681
      },
      "latitude": 6.9217,
      "longitude": 80.7681,
      "timestamp": 1742131200000,
      "markedAt": "2026-03-15T08:30:00Z"
    },
    {
      "date": "2026-03-15",
      "status": "ABSENT",
      "statusLabel": "Absent",
      "studentId": "student_3_id",
      "studentName": "A. Weerasekara",
      "studentImageUrl": "https://storage.googleapis.com/bucket/images/student3_profile.jpg",
      "instituteId": "109",
      "instituteName": "Colombo International School",
      "instituteLogoUrl": "https://storage.googleapis.com/bucket/logos/colombo_intl_logo.png",
      "classId": "class_8a",
      "className": "8A",
      "subjectId": null,
      "subjectName": null,
      "markingMethod": "WEB",
      "remarks": "Sick leave approved",
      "userType": "STUDENT",
      "location": "Colombo International School, 8A",
      "address": {
        "latitude": 6.9217,
        "longitude": 80.7681
      },
      "latitude": 6.9217,
      "longitude": 80.7681,
      "timestamp": 1742131200000,
      "markedAt": "2026-03-15T08:00:00Z"
    },
    {
      "date": "2026-03-14",
      "status": "PRESENT",
      "statusLabel": "Present",
      "studentId": "student_4_id",
      "studentName": "K.D. Perera",
      "studentImageUrl": "https://storage.googleapis.com/bucket/images/student4_profile.jpg",
      "instituteId": "109",
      "instituteName": "Colombo International School",
      "instituteLogoUrl": "https://storage.googleapis.com/bucket/logos/colombo_intl_logo.png",
      "classId": "class_7b",
      "className": "7B",
      "subjectId": "subject_english",
      "subjectName": "English",
      "markingMethod": "WEB",
      "remarks": null,
      "userType": "STUDENT",
      "location": "Colombo International School, 7B",
      "address": {
        "latitude": 6.9217,
        "longitude": 80.7681
      },
      "latitude": 6.9217,
      "longitude": 80.7681,
      "timestamp": 1742047200000,
      "markedAt": "2026-03-14T08:15:00Z"
    },
    {
      "date": "2026-02-20",
      "status": "PRESENT",
      "statusLabel": "Present",
      "studentId": "student_3_id",
      "studentName": "A. Weerasekara",
      "studentImageUrl": "https://storage.googleapis.com/bucket/images/student3_profile.jpg",
      "instituteId": "208",
      "instituteName": "Royal College Colombo",
      "instituteLogoUrl": "https://storage.googleapis.com/bucket/logos/royal_college_logo.png",
      "classId": "class_8a_rc",
      "className": "8A",
      "subjectId": null,
      "subjectName": null,
      "markingMethod": "WEB",
      "remarks": null,
      "userType": "STUDENT",
      "location": "Royal College Colombo, 8A",
      "address": {
        "latitude": 6.9271,
        "longitude": 80.6356
      },
      "latitude": 6.9271,
      "longitude": 80.6356,
      "timestamp": 1708339200000,
      "markedAt": "2026-02-20T08:00:00Z"
    }
  ],
  "summary": {
    "totalPresent": 28,
    "totalAbsent": 8,
    "totalLate": 4,
    "totalLeft": 1,
    "totalLeftEarly": 1,
    "totalLeftLately": 0,
    "attendanceRate": 77.78
  },
  "byInstitute": {
    "109": {
      "instituteName": "Colombo International School",
      "instituteLogoUrl": "https://storage.googleapis.com/bucket/logos/colombo_intl_logo.png",
      "totalPresent": 20,
      "totalAbsent": 5,
      "totalLate": 3,
      "totalLeft": 1,
      "totalLeftEarly": 1,
      "totalLeftLately": 0,
      "attendanceRate": 80.0
    },
    "208": {
      "instituteName": "Royal College Colombo",
      "instituteLogoUrl": "https://storage.googleapis.com/bucket/logos/royal_college_logo.png",
      "totalPresent": 8,
      "totalAbsent": 3,
      "totalLate": 1,
      "totalLeft": 0,
      "totalLeftEarly": 0,
      "totalLeftLately": 0,
      "attendanceRate": 72.73
    }
  },
  "byStudent": {
    "student_3_id": {
      "studentName": "A. Weerasekara",
      "studentImageUrl": "https://storage.googleapis.com/bucket/images/student3_profile.jpg",
      "totalRecords": 16,
      "totalPresent": 13,
      "totalAbsent": 2,
      "totalLate": 1,
      "totalLeft": 0,
      "totalLeftEarly": 0,
      "totalLeftLately": 0,
      "attendanceRate": 86.67
    },
    "student_4_id": {
      "studentName": "K.D. Perera",
      "studentImageUrl": "https://storage.googleapis.com/bucket/images/student4_profile.jpg",
      "totalRecords": 18,
      "totalPresent": 15,
      "totalAbsent": 2,
      "totalLate": 1,
      "totalLeft": 0,
      "totalLeftEarly": 0,
      "totalLeftLately": 0,
      "attendanceRate": 88.24
    }
  }
}
